…
## Exercise 3

### Example 1: Both variables are numeric

The data used here is the “penguins” dataset from “palmerpenguins”.
First, have a look at the content of the dataset.

``` r
print(penguins)
```

    ## # A tibble: 344 × 8
    ##    species island    bill_length_mm bill_depth_mm flipper_length_mm body_mass_g
    ##    <fct>   <fct>              <dbl>         <dbl>             <int>       <int>
    ##  1 Adelie  Torgersen           39.1          18.7               181        3750
    ##  2 Adelie  Torgersen           39.5          17.4               186        3800
    ##  3 Adelie  Torgersen           40.3          18                 195        3250
    ##  4 Adelie  Torgersen           NA            NA                  NA          NA
    ##  5 Adelie  Torgersen           36.7          19.3               193        3450
    ##  6 Adelie  Torgersen           39.3          20.6               190        3650
    ##  7 Adelie  Torgersen           38.9          17.8               181        3625
    ##  8 Adelie  Torgersen           39.2          19.6               195        4675
    ##  9 Adelie  Torgersen           34.1          18.1               193        3475
    ## 10 Adelie  Torgersen           42            20.2               190        4250
    ## # ℹ 334 more rows
    ## # ℹ 2 more variables: sex <fct>, year <int>
…
### Example 2: Independent variables are categorical while dependent variables are numeric

The data used here is the “apt_buildings” dataset from “datateachr”.
First, have a look at the content of the dataset.

``` r
print(apt_buildings)
```

    ## # A tibble: 3,455 × 37
    ##       id air_conditioning amenities             balconies barrier_free_accessi…¹
    ##    <dbl> <chr>            <chr>                 <chr>     <chr>                 
    ##  1 10359 NONE             Outdoor rec faciliti… YES       YES                   
    ##  2 10360 NONE             Outdoor pool          YES       NO                    
    ##  3 10361 NONE             <NA>                  YES       NO                    
    ##  4 10362 NONE             <NA>                  YES       YES                   
    ##  5 10363 NONE             <NA>                  NO        NO                    
    ##  6 10364 NONE             <NA>                  NO        NO                    
    ##  7 10365 NONE             <NA>                  NO        YES                   
    ##  8 10366 CENTRAL AIR      Indoor pool , Indoor… YES       NO                    
    ##  9 10367 NONE             <NA>                  YES       YES                   
    ## 10 10368 NONE             Indoor recreation ro… YES       YES                   
    ## # ℹ 3,445 more rows
    ## # ℹ abbreviated name: ¹​barrier_free_accessibilty_entr
    ## # ℹ 32 more variables: bike_parking <chr>, exterior_fire_escape <chr>,
    ## #   fire_alarm <chr>, garbage_chutes <chr>, heating_type <chr>, intercom <chr>,
    ## #   laundry_room <chr>, locker_or_storage_room <chr>, no_of_elevators <dbl>,
    ## #   parking_type <chr>, pets_allowed <chr>, prop_management_company_name <chr>,
    ## #   property_type <chr>, rsn <dbl>, separate_gas_meters <chr>, …
…
